/Users/16547/Documents/workspace/AdCampaignService/src/main/java/com/myntra/adcampaign/entry/AdvertisorEntry.java
/Users/16547/Documents/workspace/AdCampaignService/src/main/java/com/myntra/adcampaign/Controller/AdCampaignController.java
/Users/16547/Documents/workspace/AdCampaignService/src/main/java/com/myntra/adcampaign/dao/AdvertisorDao.java
/Users/16547/Documents/workspace/AdCampaignService/src/main/java/com/myntra/adcampaign/entity/Advertisor.java
/Users/16547/Documents/workspace/AdCampaignService/src/main/java/com/myntra/adcampaign/App.java
/Users/16547/Documents/workspace/AdCampaignService/src/main/java/com/myntra/adcampaign/ApiResponses/ApiResponse.java
/Users/16547/Documents/workspace/AdCampaignService/src/main/java/com/myntra/adcampaign/Manager/AdCampaignManager.java
